672 611360 470
7882 916631 525
8060 318597 443
8507 236241 443
6398 78603 351
760 25441 282
5322 873887 525
496 203657 383
3602 746186 509
9522 282535 443
1062 882282 525
6185 218297 386
9168 385973 443
2638 456610 449
5516 910434 525
4168 165499 383
2856 961475 525
4752 684924 509
9165 598345 470
8255 444292 449
9335 581151 470
8944 800044 509
6765 473890 449
5118 985068 525
5436 190166 383
6685 404606 443
649 556717 470
8043 101616 351
6558 238528 443
4143 989131 525
9132 379139 443
3511 993640 525
331 392814 443
2315 122032 354
3627 66554 340
6729 641532 509
2906 552900 470
2705 962823 525
3414 888802 525
4086 234537 443
8996 257098 443
9045 259500 443
3604 515208 470
6958 18354 279
5079 254440 443
6019 575873 470
2508 514964 470
6970 280661 443
1500 391279 443
6780 675629 509
1751 856595 525
3214 28467 308
5169 704425 509
6909 762357 509
5658 804382 509
8092 700841 509
4705 846761 525
64 108670 354
6155 121423 354
4993 77051 351
5833 432182 449
7777 243549 443
6535 669324 509
2571 685568 509
7013 470958 449
2990 665092 509
3167 488988 449
9517 698388 509
3045 192425 383
7279 409211 443
5624 637749 509
758 895155 525
2097 997934 525
5207 81783 351
3473 482438 449
1929 870430 525
6907 221333 386
7739 458309 449
2257 698826 509
6630 432488 449
2853 127959 354
5071 604202 470
9047 226448 386
797 312154 443
1576 829099 509
2261 206733 383
9310 375602 443
3888 89799 351
5311 840054 525
6679 335106 443
8745 191562 383
4694 747428 509
9624 169074 383
3916 604417 470
9697 355716 443
1842 719084 509
8496 920230 525
8308 258589 443
7157 25842 282
4054 261344 443
6146 611596 470
4651 299349 443
6232 883103 525
7714 671288 509
9874 27919 308
8080 611043 470
8085 13844 276
2911 700452 509
5654 673423 509
2851 118862 354
1681 387834 443
1623 342807 443
622 298037 443
7353 120837 354
2507 959159 525
8252 971868 525
1956 285261 443
4443 730961 509
9363 644000 509
9274 559161 470
6241 646262 509
4557 798052 509
1046 982316 525
6617 647178 509
7735 701695 509
7310 490400 449
6523 183994 383
2232 501211 449
8856 758074 509
8832 142766 375
6116 219162 386
5766 538800 470
7597 918346 525
4772 87577 351
1759 485328 449
1802 18306 279
8964 185614 383
6661 10572 260
8049 714504 509
8920 779096 509
7172 129207 354
4265 248723 443
3940 497767 449
4410 804341 509
8348 420671 449
8824 810335 509
1038 394392 443
3994 193711 383
2388 319862 443
6934 184444 383
6270 584254 470
3650 42200 324
5003 539436 470
7767 82911 351
8325 587928 470
6780 492323 449
1849 896182 525
9579 731788 509
9815 493214 449
6825 793730 509
1731 474346 449
5456 949434 525
3617 876161 525
535 262642 443
6942 246259 443
769 899296 525
8585 491337 449
8118 863092 525
1071 823682 509
370 191904 383
6903 49726 324
187 970043 525
8307 824657 509
7388 157463 383
9556 703409 509
7992 493533 449
5735 784459 509
5806 181058 383
1374 991207 525
1437 130603 354
9560 720118 509
4321 411032 449
7347 633341 509
9746 90631 351
93 551670 470
4410 761537 509
7591 99165 351
5281 784333 509
9101 57319 340
3059 191913 383
1034 890997 525
6446 999746 525
1818 293229 443
2914 54932 340
2348 469793 449
3957 259305 443
2171 34203 308
8578 667395 509
8863 172560 383
3187 915612 525
8047 229289 386
6890 249970 443
5159 182639 383
9895 78540 351
3403 38252 324
9905 184674 383
6464 383665 443
7936 988875 525
3450 239738 443
5349 318226 443
2751 491049 449
6629 643122 509
908 404417 443
4739 424355 449
3064 447105 449
114 994602 525
1777 541286 470
3450 597599 470
5333 483304 449
7483 75749 340
4460 333714 443
8903 164066 383
7215 535570 470
7390 109859 354
5186 456744 449
47 806969 509
2642 974658 525
5081 16686 276
8018 976420 525
2967 446806 449
4164 510514 449
9778 383874 443
41 38208 324
3058 805098 509
1927 397929 443
5926 584523 470
1859 740791 509
1614 328291 443
6335 217719 386
7289 715521 509
8658 313169 443
9222 660259 509
7927 514314 470
4712 532577 470
3452 316548 443
8549 775132 509
4505 636566 509
6310 572974 470
7950 970078 525
5029 415433 449
